{
    "data" : [
        {
            "id": 1,
            "first_name" : "Abiseka Konsultan",
            "last_name" : "",
            "address": "Jl. Kapten Tendean II/14 RT 23 RW 03 Desa Sengon",
            "city": "Surabaya",
            "type_name": "Owner",
            "phone": "82131234516",
            "gender":"L",
            "photo":null
        },
        {
            "id": 2,
            "first_name" : "Abiseka Konsultan",
            "last_name" : "",
            "address": "Jl. Kapten Tendean II/14 RT 23 RW 03 Desa Sengon",
            "city": "Surabaya",
            "type_name": "Kontraktor",
            "phone": "82131234516",
            "gender":"P",
            "photo":null
        },
        {
            "id": 3,
            "first_name" : "Abiseka Konsultan",
            "last_name" : "",
            "address": "Jl. Kapten Tendean II/14 RT 23 RW 03 Desa Sengon",
            "city": "Surabaya",
            "type_name": "Konsultan",
            "phone": "82131234516",
            "gender":"P",
            "photo":null
        },
        {
            "id": 4,
            "first_name" : "Abiseka Konsultan",
            "last_name" : "",
            "address": "Jl. Kapten Tendean II/14 RT 23 RW 03 Desa Sengon",
            "city": "Surabaya",
            "type_name": "Owner",
            "phone": "82131234516",
            "gender":"L",
            "photo":null
        },
        {
            "id": 5,
            "first_name" : "Abiseka Konsultan",
            "last_name" : "",
            "address": "Jl. Kapten Tendean II/14 RT 23 RW 03 Desa Sengon",
            "city": "Surabaya",
            "type_name": "Owner",
            "phone": "82131234516",
            "gender":"L",
            "photo":null
        },
        {
            "id": 6,
            "first_name" : "Abiseka Konsultan",
            "last_name" : "",
            "address": "Jl. Kapten Tendean II/14 RT 23 RW 03 Desa Sengon",
            "city": "Surabaya",
            "type_name": "Kontraktor",
            "phone": "82131234516",
            "gender":"P",
            "photo":null
        },
        {
            "id": 7,
            "first_name" : "Abiseka Konsultan",
            "last_name" : "",
            "address": "Jl. Kapten Tendean II/14 RT 23 RW 03 Desa Sengon",
            "city": "Surabaya",
            "type_name": "Konsultan",
            "phone": "82131234516",
            "gender":"P",
            "photo":null
        },
        {
            "id": 8,
            "first_name" : "Abiseka Konsultan",
            "last_name" : "",
            "address": "Jl. Kapten Tendean II/14 RT 23 RW 03 Desa Sengon Jl. Kapten Tendean II/14 RT 23 RW 03 Desa Sengon",
            "city": "Surabaya",
            "type_name": "Konsultan",
            "phone": "82131234516",
            "gender":"L",
            "photo":null
        }
    ]
}