{
    "data" : [
        {
            "id": 1,
            "title" : "Abiseka Konsultan",
            "description" : "Rapat bersama",
            "address": "Jl. Kapten Tendean II/14 RT 23 RW 03 Desa Sengon",
            "city": "Surabaya",
            "status": 1,
            "customer_id": 1,
            "first_date":"2019-12-13",
            "end_date":"2019-12-13",
            "photos":[]
        },
        {
            "id": 2,
            "title" : "Abiseka Konsultan",
            "description" : "Rapat bersama",
            "address": "Jl. Kapten Tendean II/14 RT 23 RW 03 Desa Sengon",
            "city": "Surabaya",
            "status": 1,
            "customer_id": 2,
            "first_date":"2019-12-13",
            "end_date":"2019-12-13",
            "photos":[]
        },
        {
            "id": 3,
            "title" : "Abiseka Konsultan",
            "description" : "Rapat bersama",
            "address": "Jl. Kapten Tendean II/14 RT 23 RW 03 Desa Sengon",
            "city": "Surabaya",
            "status": 2,
            "customer_id": 3,
            "first_date":"2019-12-13",
            "end_date":"2019-12-13",
            "photos":[]
        },
        {
            "id": 4,
            "title" : "Abiseka Konsultan",
            "description" : "Rapat bersama",
            "address": "Jl. Kapten Tendean II/14 RT 23 RW 03 Desa Sengon",
            "city": "Surabaya",
            "status": 2,
            "customer_id": 4,
            "first_date":"2019-12-13",
            "end_date":"2019-12-13",
            "photos":[]
        },
        {
            "id": 5,
            "title" : "Abiseka Konsultan",
            "description" : "Rapat bersama",
            "address": "Jl. Kapten Tendean II/14 RT 23 RW 03 Desa Sengon",
            "city": "Surabaya",
            "status": 3,
            "customer_id": 5,
            "first_date":"2019-12-13",
            "end_date":"2019-12-13",
            "photos":[]
        },
        {
            "id": 6,
            "title" : "Abiseka Konsultan",
            "description" : "Rapat bersama",
            "address": "Jl. Kapten Tendean II/14 RT 23 RW 03 Desa Sengon",
            "city": "Surabaya",
            "status": 0,
            "customer_id": 6,
            "first_date":"2019-12-13",
            "end_date":"2019-12-13",
            "photos":[]
        },
        {
            "id": 7,
            "title" : "Abiseka Konsultan",
            "description" : "Rapat bersama",
            "address": "Jl. Kapten Tendean II/14 RT 23 RW 03 Desa Sengon",
            "city": "Surabaya",
            "status": 0,
            "customer_id": 7,
            "first_date":"2019-12-13",
            "end_date":"2019-12-13",
            "photos":[]
        },
        {
            "id": 8,
            "title" : "Abiseka Konsultan",
            "description" : "Rapat bersama",
            "address": "Jl. Kapten Tendean II/14 RT 23 RW 03 Desa Sengon",
            "city": "Surabaya",
            "status": 1,
            "customer_id": 8,
            "first_date":"2019-12-13",
            "end_date":"2019-12-13",
            "photos":[]
        }
    ]
}